models/oupost/outpost_07_left.lod
models/oupost/outpost_14_dome.lod
models/oupost/outpost_17_tower1.lod
models/oupost/outpost_18_tower2.lod
models/oupost/outpost_21_props2.lod
models/oupost/outpost_13_backcover.lod
models/oupost/outpost_08_right.lod
models/oupost/outpost_11_command.lod
models/oupost/outpost_20_props1.lod
models/oupost/outpost_09_hangar.lod
models/oupost/outpost_10_platform.lod
models/oupost/outpost_22_props3.lod
models/oupost/outpost_01_dock.lod
models/oupost/outpost_02_front.lod
models/oupost/outpost_23_props4.lod
models/oupost/outpost_03_chest.lod
models/oupost/outpost_04_bottom.lod
models/oupost/outpost_06_back.lod
models/oupost/outpost_05_top.lod
models/oupost/outpost_12_topcover.lod
models/oupost/outpost_19_tower3.lod
models/oupost/outpost_15_bridge1.lod
models/oupost/outpost_16_bridge2.lod
models/oupost/outpost_24_props5.lod
models/oupost/outpost_25_props6.lod
