shaders/frag_light_bump_example.frag
shaders/frag_light_bump.frag
shaders/frag_light_bump.vert
shaders/frag_light.vert
shaders/refract.frag
shaders/frag_light_bump_example.vert
shaders/frag_light_bump_full.frag
shaders/frag_light.frag
shaders/pulse.vert
shaders/refract.vert
shaders/toon_sh.vert
shaders/toon_sh.frag
shaders/toon_sil.vert

shaders/heat.frag

shaders/horizontal.frag
shaders/vertical.frag

shaders/grass.vert

shaders/frag_light_bump_smoke.frag
shaders/frag_light_bump_smoke.vert