shaders/shield.sha
shaders/opaque.sha
shaders/opaque_lowpoly.sha
shaders/fonts.sha
shaders/bb.sha
shaders/bb_add.sha
shaders/frag_light.sha
shaders/refract.sha
shaders/brushed.sha
shaders/toon.sha
shaders/bb_over.sha
shaders/opaque_bump.sha
shaders/opaque_bump_example.sha
shaders/opaque_lightmap.sha
shaders/opaque_bump_full.sha

shaders/heat_shader.sha
shaders/mask_shader.sha

shaders/blur_h.sha
shaders/blur_v.sha
shaders/emissive_only.sha

shaders/grass.sha
shaders/plane.sha

shaders/opaque_bump.sha.smoke