textures/font_zeroes3.tex

textures/explosion.tex
textures/explosion2.tex

textures/target/target_01.tex
textures/target/target_02.tex

textures/heat/heat_mask.tex
textures/heat/heat_noise.tex

textures/shockwave/shockwave_mask.tex