textures/font_zeroes3.tex

textures/t_inter/t_baydiff.tex
textures/t_inter/t_baygloss.tex
textures/t_inter/t_decal.tex
textures/t_inter/t_diffuse.tex
textures/t_inter/t_gloss.tex

textures/missile/missil_fed01_emis.tex

textures/target/target.tex